lo: [i4----] WhatsApp 10.8.0.1:35480 --> 184.173.179.46:443
lo: [i4-g--] SSL 10.8.0.1:35480 --> 184.173.179.46:443
lo: [i4----] WhatsApp 10.8.0.1:44819 --> 158.85.58.42:5222
lo: [i4-g--] Unknown 10.8.0.1:44819 --> 158.85.58.42:5222
lo: [i4----] WhatsApp 10.8.0.1:42241 --> 173.192.222.189:5222
lo: [i4-g--] Unknown 10.8.0.1:42241 --> 173.192.222.189:5222
lo: [i4----] WhatsApp 10.8.0.1:49721 --> 158.85.58.109:5222
lo: [i4-g--] Unknown 10.8.0.1:49721 --> 158.85.58.109:5222
lo: [i4----] WhatsApp 10.8.0.1:51570 --> 158.85.5.199:443
lo: [i4-g--] SSL 10.8.0.1:51570 --> 158.85.5.199:443
